adobe-reader,i686
atokx-support,i686,x86_64
flashplayer-plugin,i686,x86_64
lame,i686,x86_64
libdvdcss,i686,x86_64
mikachanfont,i686,x86_64
povray,i686,x86_64
super_pi,i686,x86_64
vje-support,i686,x86_64
w32codec,i686
wxg-support,i686,x86_64
xorg-x11-drv-nvidia,i686,x86_64
xvid,i686,x86_64
