-----BEGIN PGP SIGNATURE-----
Version: GnuPG v1.4.8 (SunOS)

iQCVAgUAT8gEIKbDgE/zdoE9AQJcEQQAxsr4bAinyGczd2TWYyfb6e5hKsAwOgrG
jetCbtaLn8vuO6jxJENaB5wT1qOnxXBGaM9OwPrBr11NEysI1RP3IQLf1QsnYSqS
8mXGgFBJJbSnVjssncS7cwlVEiJUO2RJVqwxp0QeDaEqzrluKpJ18nQJLBRUfgCG
tvKgz/g1P4g=
=JUK0
-----END PGP SIGNATURE-----
