
$B2a5n$NCx<T$K%3%s%?%/%H$,<h$l$J$$$3$H!$;HMQ>r7o(B/$B:FG[I[>r7o$,(B
$B$"$$$^$$$J$3$H$+$i!$Ld$$9g$o$;$N%a!<%k$KL@3N$KEz$($i$l$J$$$G(B
$B$$$^$9!%(B
$B%*%j%8%J%k$N;HMQ>r7o$KB?>/87$7$$>r7o$r2C$($F;HMQ>r7o$r$D$1$F(B
$B$$$^$9!%(B

----- $B$3$3$+$i(B ----- Ver. 1.00 2002/4

lha for unix $B;HMQ>r7o!&:FG[I[>r7o(B

$B>&MQ!$Hs>&MQ$K8B$i$::FG[I[$N>l9g!$2<5-$N9`L\$r<i$C$F$/$@$5$$!%(B
1.$B$+$i(B7.$B$^$G!$>&MxMQ$N>l9g$O(B8.$B$N9`L\$r4^$a!$(B
$B<i$l$J$$>l9g$O!$(Blha$B$NMxMQ5Z$S(Blha$B$NG[I[$r$7$J$$$G$/$@$5$$!%(B

1.$B!!Cx:n8"I=<($r:o=|$7$J$$$3$H!%(B
$B!!!!%=!<%9$NCx:n8"I=<($r>C$5$J$$$3$H!%(B

$B!!!!(Blha$B<+?H$r%f!<%6$K8+$;$k>l9g!$%f!<%6$,(Blha$B%3%^%s%I$r(B
$B!!!!<B9T$9$k>l9gEy$O!$%3%^%s%I5Z$S%*%W%7%g%sL5$7$G<B9T(B
$B!!!!$7$?$H$-$K(B(lha$B$H$@$1F~NO$7$?$H$-!KI=<($5$l$kCx:n8"(B
$B!!!!I=<($r:o=|$7$J$$$G$/$@$5$$!%(B

2.$B!!85$N(Blha*.tar.gz(tgz)$B$K4^$^$l$k%=!<%9!$%I%-%e%a%s%HN`$O(B
$B!!!!$=$N$^$^;D$9$+!$JQ99$7$?>l9g$K$O!$JQ99$7$?$3$H$r(B
$B!!!!L@<($7$?%I%-%e%a%s%H$rMQ0U$9$k$3$H!%(B
$B!!!!$D$^$j!$85$N(Blha*.tar.gz$B$H2?$,0[$J$k$N$+L@5-$9$k$3$H!%(B

$B!!!!(Blha$B$rMxMQ$9$k%"%W%j%1!<%7%g%s$H6&$K(Blha$B$rG[I[$9$k$H$-$b(B
$B!!!!(Blha$B$O%P%$%J%j$GG[I[$7$J$$$3$H!%(B

3.$B!!%P%$%J%j$N$_$NG[I[$O$7$J$$$3$H!%(B

4.$B!!:G?7HG$NG[I[$K6P$a$k$3$H!J5AL3L5$7!K(B

5.$B!!$3$N(Blha for unix$B$NA4Cx:n<T$O!$$3$N%W%m%0%i%`$NB8:_$d(B
$B!!!!;HMQ$7$?$3$H$K$h$kB;32$OJ]>Z$7$J$$!%(B

6.$B!!;d(B($B2,K\(B)$B5Z$S2a5n$NCx:n<T$O!$%W%m%0%i%`$NITHw$,$"$C$F$b(B
    $BD{@5$9$k5AL3$rIi$o$J$$!%(B

7.$B!!$3$N%W%m%0%i%`$N0lIt!$$^$?$OA4It$rB>$N%W%m%0%i%`$K(B
$B!!!!AH$_9~$s$GMxMQ$7$F$b$+$^$o$J$$!%$3$N>l9g$O!$$=$N(B
$B!!!!%W%m%0%i%`$O(Blha$B$G$O$J$/!$(BLHa$B$HL>>h$C$F$O$$$1$J$$!%(B

$B!!!!$5$i$K!$$=$NB>$N%W%m%0%i%`$KIU?o$9$k%I%-%e%a%s%HEy$K$h$j!$(B
$B!!!!(Blha$B$N%=!<%9$rMxMQ$7$F$$$k$3$H$rI=<($9$k$3$H!$%=!<%9Fb$N(B
$B!!!!Cx:n8"I=<($r;D$9$3$H$r<i$C$F$/$@$5$$!%(B

$B>&MQMxMQ$K4X$7$F$O2<5-$N9`L\$b<i$C$F$/$@$5$$!%(B

8.$B!!>&MQMxMQ$K4X$7$F(B

a.$B!!$3$N%W%m%0%i%`$r%a%$%s$H$9$k>&MQMxMQ$O6X;_$G$9!%(B

b.$B!!>&MQMxMQ$NAj<j$,$3$N%W%m%0%i%`$N;HMQ<T$H$7$F(B
$B!!!!ITE,@Z$G$"$k$HH=CG$7$?>l9g$K$OG[I[$7$J$$!%(B
$B!!!!K\(Blha$B$N:FG[I[>r7o$K0cH?$9$k$H;W$o$l$k<T!$0cK!$J(B
$B!!!!L\E*$K(Blha$B$,;H$o$l$k$H9M$($i$l$k$H$-$OG[I[$7$J$$$3$H!%(B

c.$B!!%$%s%9%H!<%k$N<jCJ$H$7$F;HMQ$9$k>l9g!$$3$N%W%m%0%i%`$r(B
$B!!!!;H$&$3$H$rAj<j$K6/@)$7$J$$$3$H!%(B
$B!!!!Nc$($P:9J,%U%!%$%k!$%a!<%kE:IU%U%!%$%k$H$7$F(Blha$B$G(B
$B!!!!05=L$5$l$?=q8K(B(*.lzh)$B$r;H$&$3$H$r6/@)$7$J$1$l$P(B
$B!!!!$h$$$H;W$$$^$9!%Aj<j$,(Btar.gz$B$r4uK>$9$k$J$i$P!$$=$l$K$b(B
$B!!!!BP1~$G$-$k$h$&$K$7$F$*$$$F$/$@$5$$!%(B

d.$B!!>&MQMxMQ$rIU2C2ACM$H$7$F9T$$!$$3$N%W%m%0%i%`$r;HMQ$9$k(B
$B!!!!>l9g$O!$>&MQMxMQ<T$O!$$=$N%5%]!<%H$r9T$&$3$H!%(B
    $B;d(B($B2,K\(B)$B5Z$S2a5n$NCx:n<T$O!$$3$N%W%m%0%i%`$NB8:_$d(B
    $B;HMQ$7$?$3$H$K$h$kB;32$O$^$C$?$/J]>Z$7$J$$!%(B

$B!!!!(Blha$B$KITET9g$,H/@8$7$?>l9g$O!$>&MQMxMQ<T(B($B4k6H$dCDBN$N(B
$B!!!!>l9g$O>&MQMxMQ<T$,B0$7$F$$$k(B($BB0$7$F$$$?(B)$B%W%m%8%'%/%HEy$N(B
$B!!!!@UG$<T$NJ}!$$"$k$$$O4k6H$dCDBN!K$,%5%]!<%H$7$F$/$@$5$$!%(B

$B!!!!ITET9g$K$h$j%=!<%9=$@5Ey$r9T$C$?>l9g$b!$K\:FG[I[>r7o(B
$B!!!!$N2~JQEy$r9T$C$?>l9g$KAjEv$7$^$9!%%=!<%9=$@58e$N(B
$B!!!!%W%m%0%i%`$N%P%$%J%j$N$_$NG[I[$O6X;_$G$9!%(B
    $B2~JQ$7$?%=!<%9$r8x3+$7$F$/$@$5$$!%(B

e.$B!!>&MQMxMQ$G$"$C$F$b%P%$%J%j$N$_$NG[I[$O5v$5$l$J$$!%(B

f.$B!!FC5v$K$D$$$F5$$K$J$kJ}$O1|B<@2I'EB$N%3%a%s%H$r;29M$K$7$F$/$@$5$$!%(B
$B!!!!(Bhttp://www.matsusaka-u.ac.jp/~okumura/compression/cmaga.html

g.$B!!>&MQMxMQ$N%W%m%8%'%/%HEy$N@UG$<T$,(B
$B!!!!(B1.$B!A(B7.$B$^$G$N9`L\!$(B8.$B$N(Ba.$B!A(Bf.$B$^$G$N>r7o$G(Blha$B$r>&MQMxMQ$G$-$k(B
$B!!!!$3$H$r3NG'$7$F$/$@$5$$!%%W%m%8%'%/%H$NC4Ev<T$@$1$,:FG[I[>r7o$r(B
$B!!!!<i$l$k$H$7$F$b!$C4Ev<T$,%W%m%8%'%/%H$r30$l$?>l9gEy$N(B
$B!!!!%5%]!<%H5Z$SK\;HMQ>r7o!&:FG[I[>r7o$,<i$i$l$k$3$H$rJ]>Z$G$-(B
    $B$J$1$l$P$$$1$^$;$s!%(B

----- $B$3$3$^$G(B -----
